<?xml version="1.0" encoding="utf-8"?>
<!-- Generator: Adobe Illustrator 19.2.0, SVG Export Plug-In . SVG Version: 6.00 Build 0)  -->
<svg version="1.1" xmlns="http://www.w3.org/2000/svg" xmlns:xlink="http://www.w3.org/1999/xlink" x="0px" y="0px"
	 viewBox="0 0 100 100" width="100" height="100" style="enable-background:new 0 0 100 100;" xml:space="preserve">
<style type="text/css">
	.st0{fill:#811D63;}
	.st1{fill:none;stroke:#F28D62;stroke-width:1.5;stroke-linecap:round;stroke-linejoin:round;stroke-miterlimit:10;}
	.st2{fill:none;stroke:#F28E62;stroke-width:1.5;stroke-linecap:round;stroke-linejoin:round;stroke-miterlimit:10;}
</style>
<metadata><?xpacket begin="﻿" id="W5M0MpCehiHzreSzNTczkc9d"?>
<x:xmpmeta xmlns:x="adobe:ns:meta/" x:xmptk="Adobe XMP Core 5.6-c111 79.158366, 2015/09/25-01:12:00        ">
   <rdf:RDF xmlns:rdf="http://www.w3.org/1999/02/22-rdf-syntax-ns#">
      <rdf:Description rdf:about=""
            xmlns:dc="http://purl.org/dc/elements/1.1/"
            xmlns:xmp="http://ns.adobe.com/xap/1.0/"
            xmlns:xmpGImg="http://ns.adobe.com/xap/1.0/g/img/"
            xmlns:xmpMM="http://ns.adobe.com/xap/1.0/mm/"
            xmlns:stRef="http://ns.adobe.com/xap/1.0/sType/ResourceRef#"
            xmlns:stEvt="http://ns.adobe.com/xap/1.0/sType/ResourceEvent#"
            xmlns:illustrator="http://ns.adobe.com/illustrator/1.0/"
            xmlns:xmpTPg="http://ns.adobe.com/xap/1.0/t/pg/"
            xmlns:stDim="http://ns.adobe.com/xap/1.0/sType/Dimensions#"
            xmlns:xmpG="http://ns.adobe.com/xap/1.0/g/"
            xmlns:pdf="http://ns.adobe.com/pdf/1.3/">
         <dc:format>image/svg+xml</dc:format>
         <dc:title>
            <rdf:Alt>
               <rdf:li xml:lang="x-default">Utskrift</rdf:li>
            </rdf:Alt>
         </dc:title>
         <xmp:MetadataDate>2016-01-18T15:07:16+01:00</xmp:MetadataDate>
         <xmp:ModifyDate>2016-01-18T15:07:16+01:00</xmp:ModifyDate>
         <xmp:CreateDate>2016-01-18T15:07:16+01:00</xmp:CreateDate>
         <xmp:CreatorTool>Adobe Illustrator CC 2015 (Macintosh)</xmp:CreatorTool>
         <xmp:Thumbnails>
            <rdf:Alt>
               <rdf:li rdf:parseType="Resource">
                  <xmpGImg:width>256</xmpGImg:width>
                  <xmpGImg:height>76</xmpGImg:height>
                  <xmpGImg:format>JPEG</xmpGImg:format>
                  <xmpGImg:image>/9j/4AAQSkZJRgABAgEASABIAAD/7QAsUGhvdG9zaG9wIDMuMAA4QklNA+0AAAAAABAASAAAAAEA&#xA;AQBIAAAAAQAB/+4ADkFkb2JlAGTAAAAAAf/bAIQABgQEBAUEBgUFBgkGBQYJCwgGBggLDAoKCwoK&#xA;DBAMDAwMDAwQDA4PEA8ODBMTFBQTExwbGxscHx8fHx8fHx8fHwEHBwcNDA0YEBAYGhURFRofHx8f&#xA;Hx8fHx8fHx8fHx8fHx8fHx8fHx8fHx8fHx8fHx8fHx8fHx8fHx8fHx8fHx8f/8AAEQgATAEAAwER&#xA;AAIRAQMRAf/EAaIAAAAHAQEBAQEAAAAAAAAAAAQFAwIGAQAHCAkKCwEAAgIDAQEBAQEAAAAAAAAA&#xA;AQACAwQFBgcICQoLEAACAQMDAgQCBgcDBAIGAnMBAgMRBAAFIRIxQVEGE2EicYEUMpGhBxWxQiPB&#xA;UtHhMxZi8CRygvElQzRTkqKyY3PCNUQnk6OzNhdUZHTD0uIIJoMJChgZhJRFRqS0VtNVKBry4/PE&#xA;1OT0ZXWFlaW1xdXl9WZ2hpamtsbW5vY3R1dnd4eXp7fH1+f3OEhYaHiImKi4yNjo+Ck5SVlpeYmZ&#xA;qbnJ2en5KjpKWmp6ipqqusra6voRAAICAQIDBQUEBQYECAMDbQEAAhEDBCESMUEFURNhIgZxgZEy&#xA;obHwFMHR4SNCFVJicvEzJDRDghaSUyWiY7LCB3PSNeJEgxdUkwgJChgZJjZFGidkdFU38qOzwygp&#xA;0+PzhJSktMTU5PRldYWVpbXF1eX1RlZmdoaWprbG1ub2R1dnd4eXp7fH1+f3OEhYaHiImKi4yNjo&#xA;+DlJWWl5iZmpucnZ6fkqOkpaanqKmqq6ytrq+v/aAAwDAQACEQMRAD8A9U4qpXV1a2ltJdXUyQW0&#xA;Kl5ZpWCIijcszGgAxpIBJoPEPPH/ADkpbQPJZ+UbYXLLVTqd0pEfzii+Fm+bU+RzJhp+92uDswne&#xA;fyeO67+Y3njXXY6lrV1IjdYI3MMP/IqLgn4ZeMcR0dnj02OHIBjrMzMWYlmO5J3JOTb0Zpuua1pj&#xA;iTTb+4snH7VvK8R/4QjAYgsJY4y5gF6P5U/5yI866S6Ratw1qyGzCWkc4H+TKg3/ANmpyqWAHk4W&#xA;bs3HL6fSX0B5J/MLyz5xszPpFx+/jANxZS0SeKv8yVNR/lKSMxZwMebps+nniNSZLkGh2KuxV2Ku&#xA;xV5t+YX55eWvKsklhZj9LaylVe3iYCKJhtSWXfcfyrU+NMuhhMvc52n0E8m52i8J8yfnV+Ymuu3P&#xA;U30+3PS2sK26gH/LUmU/S+ZMcMQ7fFocUOl+9hVzd3d1IZLmaSeQ7l5GLtv7sTlgDlCIHJ1td3dr&#xA;IJLaaSCQbh42KNt7qRiQpiDzZr5c/Ov8xNDdQuptqFuvW2v63Ckf65IlH0PlcsMS4uXQ4p9K9z3b&#xA;8vfzy8teapI7C8H6J1l6KlvKwMUrHakUu25/lah8K5jTwmPudRqNBPHuN4vScpcF2KuxV2KuxVjf&#xA;nX8wvLPk6zE+r3FJ5ATb2UVHnlp/KlRQf5TUHvk4QMuTfg088pqL5/8ANf8AzkT501V3i0fhotka&#xA;gekBLOQf5pXG3+wUfPMqOADm7jD2bjj9XqLzjUte1zVHMmpahc3rt1NxK8v/ABInLREDk50ccY8g&#xA;AglZlYMpKsNwRsQcLNkeh/mR560NlOna1dRxr0gkczQ/8ipeafhkDjiejRk02OfOIexeR/8AnJS1&#xA;uJI7LzbbLaux4jU7YMYv+ekXxMvzUn5DKJ6fudZn7MI3gb8nt1rdWt3bR3VrMk9tMoeKaJg6Op3D&#xA;KwqCMxqdUQQaKrihSurq2tLWa6upFhtoEaWaVzRURBVmYnsAMQkAk0Hyf+bP5s6h5y1BrOzZ7fy7&#xA;bufq9vUgzEHaaYdyf2V/Z+eZ2LFw+96LR6MYhZ+p53lrmuxVMoPL2qSwrO8a21u/2ZrmRIFI8V9Q&#xA;qW+jMeWqgDXM+Qv7mXCV48t38m1tLbXT/wC+4biJn+hCwY/QMB1URzEh7wV4Utngnt5WhnjaKVDR&#xA;43BVgfcHfMiMhIWDYYorRda1TRdTg1PS7hrW9t25RSofvBHRlPQg7HEgEUWE4CYo8n1v+Vv5lWPn&#xA;fRTNxW31e0omoWYOwJ6SR134PTbwO3ucHJj4S85qtMcUvI8ma5W4rsVdirw388fzjnsJZfK3lyf0&#xA;7sArql/Gfijr/umJh0f+du3Qb1pk4cV7l22g0XF65cuj54zKd07FXYqujjkkkWONS8jkKiKKkk7A&#xA;ADEkAWVTX/DF9z9Ez2ovOn1Mzp6tf5evHl/k8q5i/m41dS4e+jTLhSuSOWCVo5FaOWNirKwoysOx&#xA;zJBBFjkxfQn5G/nFPqEkXlbzHOZLwgLpd/IfiloP7mVj1f8Akbv0O9K42bFW4dLr9Fw+uPLq9yzG&#xA;dS7FXYqwr80vzKsfJGiibitxq93VNPsydiR1kkpvwSu/idvcWY8fEXK0umOWXkOb5I1rWtU1rU59&#xA;T1S4a6vbhuUsrn7gB0VR0AGwzOAAFB6OEBAUOSCws10cckkixxqXkchURRUknYAAYkgCyqdSadoO&#xA;nlbfVJLiW+/3eloY+ENf2SWDc3H7QFAPHMMZcuTeAAj0u9/1BnQHNLtW0/8AR+oS2okEyJxaOUCg&#xA;ZJFDo1O1VYZfgy8cBKq/FMSKKEy1D0T8pvzZ1DybqC2d4z3Hl24cfWLepJhJO80I7EftL+188qy4&#xA;uL3uFrNGMosfU+sLW6tru1hurWRZradFlhlQ1V0cVVlI7EHMEvOkEGi8Q/5yU88PBbW3lGzk4tch&#xA;brUyp/3WD+6iP+sy8j8h45k6eHV2vZmCzxn4PnrMp3TsVTqARaNZw3josuqXK+paRuAyQxdBMynY&#xA;u37AOwG/hmJK8sjEbQHPzPd7u/5MuSVXFzc3UzTXEjTTOfidyWY/ScyYwERQFBFpk+i2NqVi1HUP&#xA;q12QC1vHE0vp1FQJWDLQ+y1IzHGeUt4RuPfdX7vwE8PejZGpJHpOtSrPbyIG0/VFPIxq32GDHdoi&#xA;dmU9O1KZUBtx4xR/ij3/ALfPqnyKQXdrPaXUttOvCaFijr7jM2ExKIkORYkJ75A84XflLzTZ6xAS&#xA;YUb072Ef7tt3I9RPnTdf8oDGcOIU4+owjJAxfadtcQXNvFcwOJIJkWSKRejI4qpHzBzXPLkUaVMU&#xA;MS/NPzn/AIR8m3mpxEfXpKW2nqe88oNDQ9eChnp7ZPHDiNOTpcPiTA6dXxtNNLNK80ztJLIxeSRi&#xA;SzMxqSSepJzYPTgU1HG8jrGilnchVUbkk7ADEmhZVNpNF022kNvfamsV4NpI4ommSNu6vICNx34h&#xA;sxRqJyFxjcffV+4frplwhAajp89hcejKVYMokilQ8kkRvsuh7g5diyiYsIIpG+V+X6UIi/3qME4s&#xA;/wDjMYm4U9/5femVaz6N/psX7r/F+SY80qIfmQQedaEHrXMlim3mbn9egE3+9gtYBeV6+rwH2v8A&#xA;K48eXvmLpK4TX08Rr3MpJXDNLDKk0LtHLGweORSQyspqCCOhBzKYkW+yfys85/4u8m2epykfXo62&#xA;2oKO08QFTQdOalXp75r8kOE08xqsPhzI6dGW5BxlO5uILa3luZ3EcEKNJLI3RUQVYn5AYpAs0+LP&#xA;zA84Xfm3zTeaxOWELt6dlCx/urdCfTT5/tN/lE5sYQ4RT1GnwjHARY7km9wBJoNyegxVPpGTy9GY&#xA;YyG1yRaTSjcWqsPsIf8AfpB+Jv2egzCA8c2f7v8A3X7PvZ8vekcbqsqu6+ooYFkJI5CtSCRvvmYR&#xA;tswTrzDCb531y1cy2lwwEqmnO3egCxOB+zQURu498xNLLgHhS2kP9l5/rZy33SPMxg7FX0N/zjX5&#xA;4kuLW58pXshZ7VTc6YW/30W/ex/7FmDD5nwzF1EOrpe08FETHXm8c/MbXX13zxrWpFuSSXTxwH/i&#xA;mE+lF/wiDL8YqIdnpsfBjA8mOZNvVbOD6xdwW4NPWkWOv+swH8cjOXDEnuSEXr9z9Y1m8kG0YkaO&#xA;Jewjj+BB9CqMr00OHGB5fb1TI7oO3lEU8cpHIRsrFfGhrTLZCwQxTrVdC1K91Ca90+J760vJGmin&#xA;iHOgkJbjJSvBlrQ8sw8OohCAjM8MoiqP6O9mYknZD656cMNjp4kWWaziYXDoQyh5JC5QEbHhWhp3&#xA;rlmnsmU6oSO3yq0S7mtdb1odMvD/AHlxaKJSepaF3h5H5rGMdNsZR7pfeAf0rJKsyWL62/IXXH1X&#xA;8trBZG5zac8li7HwjIaMfRFIgzBzCpPOdoY+HKfPd6HlThPnP/nKDXJJdd0nRFb91a27XcgHQyTu&#xA;UFf9VYtvnmXpxsS7vsrH6TJ4lmQ7VH6Dcw2us2VxOeMUcyM7deIr9r/Y9cp1MDLHIDmQmJ3WX+l3&#xA;9pem2mjZpWP7tlqwkB3DIR9oN12w480ZRsHb7lIRmuI1taadp8x/0u2jdp06mP1XLrGfcD4iO1cq&#xA;054pSmPpJ286HP8AHcmXcgdNsL68uKWinnF+8aXkEWMD9tnJAUDxrl2XJGA9X9qALZD9en5gnV9N&#xA;OodPrJt2Mlf+M/oca/5XX3zA8MfzJ8Pde3y4vsZ35pBqdjf2s/K8BZp6yJOGEiSgndlkBIb78zsO&#xA;SMh6enTu+DAhB5ah7b/zi/rkkWu6tojN+6urdbuMHoJIHCGn+ssu/wAsx9QNgXVdq4/SJPozMR0j&#xA;zz8+tcfSvy2v1jbhNqLx2KMPCQlpB9MUbjLcIuTm9n4+LKPLd8k5nPRuxVtGKOrDqpBHzGJFqn93&#xA;N5X1C7kv7ie6t5bli81tHErhZG+0yuXFVrvSlcwYRzY4iAESByN9PdTM0d0p1HTprGYI5EkUg5wT&#xA;pukiHoyn9Y7ZlYsomPPqO5iRTemanPp85kjAeNxwngfeOSM9VYYM2ETFH4HuUGkyl0TTrhfr1pfw&#xA;22nv1S5Y+rE/eLigZn9mA3HvlA1E4+mUSZeXI+fky4Ql2p6XNYPGHdJoZ19SC4iPKN1qQaEgGoIo&#xA;Qcvw5hMHoRzBYkUnH5b642h+etF1ENxjjukjnP8AxTMfSl/4RzksguJcfU4+PHIeTHGZmYsxqzGp&#xA;J6knJt7WKqltM0FxFOv2onV1+amuCUbBHelHeYrdYdYuDHvBO31i3bsYpvjSlPZqZTpZ3jF8xsfe&#xA;NkyG63R9IbUZpC8otrO3X1Lu6cVWNOnQdWJ2Ve+OfP4YG1yPId6gWjf0p5XgrFBpMlzH0M09y8bu&#xA;PdIqKPxynwc0tzMA+Uf1psdy250zTb2ylv8ARy6NbgNeafKQzxqTT1I3AHNATQ7VHfJQzThIRyde&#xA;Uh18j3FBAPJS8wL6BsdPP95ZWypMPCWRmmdf9j6lMlpt+Kf86X2Db9Cy7kpzJYvpD/nF6dz5Z1iA&#xA;14Jeq4NdqvEoO3+wGYmo5h0fao9Y9z2nMd1b5N/5yCkZ/wAz9QVjtHDbKvy9FW/W2Z2D6Xouzh+6&#xA;HxecZa5yL07TLi/lZYiqRxLznnkPGONOnJm/zJyvLlEBv15DvSBacQapY2UX1SHWdRMQqC1uojiH&#xA;+orSBv1ZiSwymeIwhfnz+5lddUuvtJ4W5v7O4F7ZcgJJQCskbN0EqEkrXsakHxy/Hns8Mhwy+/3F&#xA;BCtqkrWem2emQnissSXd2R1keUcowfZI+NB41yOEcU5TPQ8I+HP5lTypJ8ymKcaPK13Z3ekynlGY&#xA;pLm1r+xNAhkPH/XRWU/RmLnHDIZB3gH3Hb7CyHck+ZTF6P8A84+yMn5n6eqnaSG5Vvl6LN+tcqz/&#xA;AEuD2iP3R+D6yzBedeLf85QzuPLOjwCvB71nJrtVImA2/wBmcyNPzLtOyh6z7nzfmW7x2KuxVM9L&#xA;0uF4W1DUGMWmxGhI+3M/X0oq9/E9sx82Yg8EN5n7PM/jdkB1KMlEeoKuoao5sdLX9zYW8K8moD0i&#xA;UkVVeruep98qFw9MPVPmSf0/oCefNKtR06axmCORJFIOcE6bpIh6Mp/WO3TMnFlExfXqO5iRSyys&#xA;rm9uVt7deUjb77AAblmJ2CgbknDkyCAsqBaM1m7tTDaafat6sNirqbjcCSSRuTsoPRey/flWCErM&#xA;5bGXTuST0S1WZWDKaMpqCOoIzIYozXNNfTNav9NkFHsriW3b5xOU/hgibDDHLiiD3hBYWbsVZL9T&#xA;gfRrW01e4W1vSS2ms4JKQtU0np9mNm+x3G56Zr+MjIZYxxR/i9/l59/62dbbuu9OvNN8oSJNH6b3&#xA;N8od1IZZIkiJSjLVWXkx79cYZY5M+3SHyNqRQY7DBPPII4I2lkb7KICzH6BmfKQAs7ME/wBPr5ak&#xA;a8umB1Io0cOnghqcxQtcU2AHZOpPWmYOX/CBwx+j+d/xP62Y9KQSyyTSvLKxeWRizudyWJqSczox&#xA;AFDkwWYVfUP/ADjVpslt5Bnu3BH16+lkjPYpGiRf8TRsw9QfU6DtOV5K7g9Yyh1z5d/5yS01rb8w&#xA;I7vj+7v7KKTl2LxloiPoCLmbpz6Xf9mSvHXcXllvKsUySNEkyqamKTlxb2PEq345bIWKunZJzrF4&#xA;v6EsIoLeK0S853FwkHPixSRoo682c/DxY9e+YeDH+8kSTLh2F13WeTInZIszWCb+VZwmt28DgPb3&#xA;rC1uImrxZJTx3pTo1DmLrI3jJHOO4+DKPNqTWLdXZW0iyJU8Sf8ASe23+/sIwH+fL/Y/8SvF5Lf0&#xA;1a/9Wey/6eP+q2P5eX8+X+x/4leLycNbth00iyH/AEkd/wDntj+Xl/Pl/sf+JXi8kvuZkmnaRIUg&#xA;VukUfLgu1NuZdvxy+EaFXaC9T/5xs01rnz/Jd8f3djZSyFqdGkZYgPmQ7ZVqD6XW9pyrHXeX1FmG&#xA;6B5P/wA5K6c9z5BgukBP1G+ikkPYJIjxb/7N1y/Tn1Ox7MlWSu8Pl7Mx37sVTPS9LheFtQ1BjFps&#xA;RoSPtzP19KKvfxPbMfNmIPBDeZ+zzP43ZAdSjZJFu1TU9TT0dMhrHp+nxnj6nH9hPBR/uyT+OVAc&#xA;PohvM/VL9J/QE89ylF/f3F9cGaYgUAWONRREQfZRF7KMyseMQFBiTacy2ker6fpxtru2gNpB6Fxb&#xA;zyrEUYOzGQcvtK3KppU5hiZxTlYkeI2CBfTkyqwgr29trW2bTtNblG1Prl5SjTkb8VruIgeg79T4&#xA;C7HjMjxz+A7v2oJ6BKsyWKN0PTX1PWrDTYxV724it1+crhP44JGgwyS4Yk9wej/85EeVH0nzr+lo&#xA;kpZa0nqhh0E8YCSr9Pwv9OVYJWKcLs3NxY+HrF5XlzsE7traDR4I76+jEt/KOdjYvuFB6TTDw/lX&#xA;v8sw5zOU8Mdojmf0D9JZgUlFzcz3U8lxcSGWaU8ndtyScyoQERQ2AYkq9nq+qWSlLS7lhjO5jRyE&#xA;NfFehyGTBCf1AFQSFaXzHrssZie+mEbfaVWKA/PjSuRGlxA3whPEUu67nL2LsVVrO0ub27gs7WMy&#xA;3NzIsUES9WdyFVR8ycSaRKQAsvtvyf5fi8u+WNM0WOh+pQLHIy9GkPxSuP8AWcsc10pWbeUzZOOZ&#xA;l3pxkWt5J/zkf5Uk1TylBrVunO40WQtKB1+rTUWQ+/FlQ+wrl+CVGu92PZubhnwn+J8w5mO/TZL3&#xA;RrmxtLa+FxFJaI8aywcJFZWkaTdGMdDV6fazFOPJGUjGjxd9jpXPf7mVhb9U8t9tSuf+kRf+q+Hj&#xA;zfzY/wCm/wCOrQVrO58uafdw3cX1u7mt5FljDCOBCyMGFd5jTbI5IZskTE8MQdup/UkEBJ3bm7Od&#xA;uRJp88ywKYLcVdirsVfT3/OOHlSTS/KM+s3CFbjWpA0QI3+rw1WM/wCyZnPypmHnlZrudB2lm4p8&#xA;I/het5Q65J/OHl+LzF5Y1PRZKD67A0cbN0WQfFE5/wBVwpyUZUbbMOTgmJdz4kvLS5sruezuozFc&#xA;20jRTxN1V0JVlPyIzYg29XGQIsK+i2cN5qtrazEiKVwGANC3fiCehb7IyrUTMIGQ5hlEWU3vI5Xc&#xA;X2twNaWNvWOw0sAxs/H9hAdwo/bk/jmLjIHpxnikecv0/qDI+aSX9/cX1wZpiBQBY41FERB9lEXs&#xA;ozMx4xAUGJNobJodirsVdir1T/nHfyo+redf0tKlbLRU9Yk9DPICkS/R8T/7HKc8qFOv7SzcOPh6&#xA;yfQH5heSbPzj5ZuNInIjn/vbK4Ir6U6A8G+RqVb2OYsJ8Jt02nznFPiD5DuLK+8sa7cWerWH+n2R&#xA;ZfQm+wsn7ElP21/aHY5l5I+JGgat6fFkEhxDcJXc3M91PJcXEhlmlPJ3bcknJwgIihsAzJU8kh2K&#xA;uxV2KuxV73/zj1+WMolTzlq8PFACNGgcbnkKNcEeFNk+k/ynMbPk6B0/aOq/ycfj+p79mK6d2Kqd&#xA;zbQXVvLbXEYlt50aOaJhVWRxxZSPAg4pBo2Hx/8Amp+XN55L8wPCqtJo92S+m3R3BXvEx/nTofEb&#xA;5n48nEPN6XSakZY/0hzYza67qVtAtskiyWy14wTRxzIKmpoJFalT4ZGenhI318iR9zmCRVf0/L1N&#xA;lZE+P1aMfgABkfyw/nS/0xXicfMurgUhkS2HSltDFCfvjVT+OP5TH1F+8k/evEUrzIYuxV2Ks1/K&#xA;v8ubzzp5gSFlaPR7Qh9SuhsAvaJT/O/QeA3yvJk4R5uLq9SMUf6R5PsC2t4La3itrdBFBCixxRqK&#xA;KqIKKoHgAMwHmibNlUxQ7FXgP/OQn5YS+q/nLSIeSED9MwIN1IFBcADtTaT/AIL+Y5lYMnQu47O1&#xA;X+Tl8P1PBMyXcLpJZZW5SOztQDkxJNB064AAOSrcKuxV2KuxVG6Loup61qlvpemQNcXt0wSKJfxJ&#xA;PZVG5J6DASALLCcxAWeT7H/L3yTZ+TvLNvpEBEk/97e3AFPVncDm3yFAq+wzAnPiNvM6jOcs+Isl&#xA;yDQwr8yvyt0XzvYr6x+qavbqRZ6ggqQOvpyDbmle3Udu9bMeQxcrTaqWI947ny75w8geafKV2YNY&#xA;s2SEmkN7HV7eX/UkpSv+SaN7ZmwmJcnf4dRDIPSWO5JvdirsVVrSzu725jtbOCS5uZTxigiUu7Hw&#xA;VVBJxJpEpACy91/LH/nHqUSw6v5yQBFo8GjAhqnsbhhtT/IH0nquY2TP0DqNV2j/AA4/n+p76iJG&#xA;ioihEQBVVRQADYAAZiunbxV2KuxVLPMflzR/MekTaVq1uLizmG4OzKw+y6N1Vl7HDGRBsNmPJKEr&#xA;jzfMP5ifkh5l8rSS3lijarogqwuYlrLEvhNGNxT+Zfh+XTM2GYH3u+02uhk2O0nm+Wuc7FXYq7FX&#xA;pH5d/kh5l80yRXl8jaVohoxuZVpLKvhDGdzX+Zvh+fTKp5gPe4Op10Mew3k+n/LvlzR/Lukw6VpF&#xA;uLezh6KN2Zj9p3Y7szdycwpSJNl0OTJKcrlzTLA1uxV2KtOiSIyOodHBVlYVBB2IIOKvAfzP/wCc&#xA;e5fVl1fybGGRqvPo1QCp6k25O1P8g/7HsoysefoXcaXtH+HJ8/1vC7uzu7K5ktbyCS2uYjxlglUo&#xA;6nwZWAIzJBt28ZAiwo4pdirsVZF5P8geafNt2INHs2eEGk17JVLeL/XkpSv+SKt7ZGcxHm0ZtRDG&#xA;PUX1D+W35V6J5JsiYqXmrzgC61F1ANP99xDfgn01PftTCyZDJ0Gp1csp7h3M2ytxXYq7FUPqH6P+&#xA;pTfpH0fqPH/SPrHH0uP+Xz+GnzwhMbvbm8B88f8AQt3qyel631up5/oPlxr/AJPq/wCi/wDA5kw8&#xA;R3OD818P6X4t5ne/8qz9UfUf016VTX1/qvKldvs7dMuHF5OdHxuvD9rIfLn/ACoP11/Sv6c6/F9Y&#xA;9L0Ke/1X9792Rl4nSmnL+Zrbh/HvfQP5ff8AKsPqp/wX9Rpx/e/V6fWeNdvV9T9//wAHmLPi6um1&#xA;Hi3+8v8AH2MwytxnYq7FXYq7FXYq7FXkn5j/APKg/Xm/xB9W/StT6n6P5/Wedd/U+r/Dy/4y5fj4&#xA;+jsdN+Zr03Xny+39DxLV/wDlUPNv0T+nu1PX+qca13px+KlOlcyBx9adrDx+vD9rtI/5VDzX9Lfp&#xA;7vX0PqnGtdq8vipTrTE8fSln4/Th+17b+XH/ACoP14f8P/Vv0rUen+kOf1nnXb0/rHw8v+MWY+Tj&#xA;6uq1P5mvVdeXL7P0vW8odc7FXYq7FXYq7FXYqw/8wf8AlWH1Uf40+o04/uvrFPrPGu/pen+//wCA&#xA;yyHF0cnT+Lf7u/x9j598xf8AKhfWP6K/Tn2v90ej6NPb6z+9+/MqPH1p3OP8zW/D+Pcx2x/5Vt63&#xA;+nfpn0dq+h9V5dd/tbdMkeLybpeL04ftem+R/wDoW71o/V9f63tw/TleFf8AK9L/AEb/AILKZ+I4&#xA;Of8ANfD+j+Le/wCnfo76jD+jfR+ocR9X+rcfR4duHD4afLMYunld780RgYuxV//Z</xmpGImg:image>
               </rdf:li>
            </rdf:Alt>
         </xmp:Thumbnails>
         <xmpMM:InstanceID>xmp.iid:53d55024-d1b9-4eca-9447-d539160f83ba</xmpMM:InstanceID>
         <xmpMM:DocumentID>xmp.did:53d55024-d1b9-4eca-9447-d539160f83ba</xmpMM:DocumentID>
         <xmpMM:OriginalDocumentID>uuid:5D20892493BFDB11914A8590D31508C8</xmpMM:OriginalDocumentID>
         <xmpMM:RenditionClass>proof:pdf</xmpMM:RenditionClass>
         <xmpMM:DerivedFrom rdf:parseType="Resource">
            <stRef:instanceID>uuid:c4e58866-3429-634f-ab1f-0c69b188144b</stRef:instanceID>
            <stRef:documentID>xmp.did:026e6b48-391e-4fc1-ab48-e7a9a00d0d59</stRef:documentID>
            <stRef:originalDocumentID>uuid:5D20892493BFDB11914A8590D31508C8</stRef:originalDocumentID>
            <stRef:renditionClass>proof:pdf</stRef:renditionClass>
         </xmpMM:DerivedFrom>
         <xmpMM:History>
            <rdf:Seq>
               <rdf:li rdf:parseType="Resource">
                  <stEvt:action>saved</stEvt:action>
                  <stEvt:instanceID>xmp.iid:300750ca-ae25-4933-942d-1982a254f880</stEvt:instanceID>
                  <stEvt:when>2016-01-11T16:45:57+01:00</stEvt:when>
                  <stEvt:softwareAgent>Adobe Illustrator CC 2015 (Macintosh)</stEvt:softwareAgent>
                  <stEvt:changed>/</stEvt:changed>
               </rdf:li>
               <rdf:li rdf:parseType="Resource">
                  <stEvt:action>saved</stEvt:action>
                  <stEvt:instanceID>xmp.iid:53d55024-d1b9-4eca-9447-d539160f83ba</stEvt:instanceID>
                  <stEvt:when>2016-01-18T15:07:16+01:00</stEvt:when>
                  <stEvt:softwareAgent>Adobe Illustrator CC 2015 (Macintosh)</stEvt:softwareAgent>
                  <stEvt:changed>/</stEvt:changed>
               </rdf:li>
            </rdf:Seq>
         </xmpMM:History>
         <illustrator:StartupProfile>Print</illustrator:StartupProfile>
         <xmpTPg:HasVisibleOverprint>False</xmpTPg:HasVisibleOverprint>
         <xmpTPg:HasVisibleTransparency>False</xmpTPg:HasVisibleTransparency>
         <xmpTPg:NPages>1</xmpTPg:NPages>
         <xmpTPg:MaxPageSize rdf:parseType="Resource">
            <stDim:w>100.000000</stDim:w>
            <stDim:h>100.000000</stDim:h>
            <stDim:unit>Pixels</stDim:unit>
         </xmpTPg:MaxPageSize>
         <xmpTPg:PlateNames>
            <rdf:Seq>
               <rdf:li>Cyan</rdf:li>
               <rdf:li>Magenta</rdf:li>
               <rdf:li>Yellow</rdf:li>
               <rdf:li>Black</rdf:li>
            </rdf:Seq>
         </xmpTPg:PlateNames>
         <xmpTPg:SwatchGroups>
            <rdf:Seq>
               <rdf:li rdf:parseType="Resource">
                  <xmpG:groupName>Standardfärgrutegrupp</xmpG:groupName>
                  <xmpG:groupType>0</xmpG:groupType>
                  <xmpG:Colorants>
                     <rdf:Seq>
                        <rdf:li rdf:parseType="Resource">
                           <xmpG:swatchName>Vit</xmpG:swatchName>
                           <xmpG:mode>CMYK</xmpG:mode>
                           <xmpG:type>PROCESS</xmpG:type>
                           <xmpG:cyan>0.000000</xmpG:cyan>
                           <xmpG:magenta>0.000000</xmpG:magenta>
                           <xmpG:yellow>0.000000</xmpG:yellow>
                           <xmpG:black>0.000000</xmpG:black>
                        </rdf:li>
                        <rdf:li rdf:parseType="Resource">
                           <xmpG:swatchName>Svart</xmpG:swatchName>
                           <xmpG:mode>CMYK</xmpG:mode>
                           <xmpG:type>PROCESS</xmpG:type>
                           <xmpG:cyan>0.000000</xmpG:cyan>
                           <xmpG:magenta>0.000000</xmpG:magenta>
                           <xmpG:yellow>0.000000</xmpG:yellow>
                           <xmpG:black>100.000000</xmpG:black>
                        </rdf:li>
                        <rdf:li rdf:parseType="Resource">
                           <xmpG:swatchName>CMYK röd</xmpG:swatchName>
                           <xmpG:mode>CMYK</xmpG:mode>
                           <xmpG:type>PROCESS</xmpG:type>
                           <xmpG:cyan>0.000000</xmpG:cyan>
                           <xmpG:magenta>100.000000</xmpG:magenta>
                           <xmpG:yellow>100.000000</xmpG:yellow>
                           <xmpG:black>0.000000</xmpG:black>
                        </rdf:li>
                        <rdf:li rdf:parseType="Resource">
                           <xmpG:swatchName>CMYK gul</xmpG:swatchName>
                           <xmpG:mode>CMYK</xmpG:mode>
                           <xmpG:type>PROCESS</xmpG:type>
                           <xmpG:cyan>0.000000</xmpG:cyan>
                           <xmpG:magenta>0.000000</xmpG:magenta>
                           <xmpG:yellow>100.000000</xmpG:yellow>
                           <xmpG:black>0.000000</xmpG:black>
                        </rdf:li>
                        <rdf:li rdf:parseType="Resource">
                           <xmpG:swatchName>CMYK grön</xmpG:swatchName>
                           <xmpG:mode>CMYK</xmpG:mode>
                           <xmpG:type>PROCESS</xmpG:type>
                           <xmpG:cyan>100.000000</xmpG:cyan>
                           <xmpG:magenta>0.000000</xmpG:magenta>
                           <xmpG:yellow>100.000000</xmpG:yellow>
                           <xmpG:black>0.000000</xmpG:black>
                        </rdf:li>
                        <rdf:li rdf:parseType="Resource">
                           <xmpG:swatchName>CMYK cyan</xmpG:swatchName>
                           <xmpG:mode>CMYK</xmpG:mode>
                           <xmpG:type>PROCESS</xmpG:type>
                           <xmpG:cyan>100.000000</xmpG:cyan>
                           <xmpG:magenta>0.000000</xmpG:magenta>
                           <xmpG:yellow>0.000000</xmpG:yellow>
                           <xmpG:black>0.000000</xmpG:black>
                        </rdf:li>
                        <rdf:li rdf:parseType="Resource">
                           <xmpG:swatchName>CMYK blå</xmpG:swatchName>
                           <xmpG:mode>CMYK</xmpG:mode>
                           <xmpG:type>PROCESS</xmpG:type>
                           <xmpG:cyan>100.000000</xmpG:cyan>
                           <xmpG:magenta>100.000000</xmpG:magenta>
                           <xmpG:yellow>0.000000</xmpG:yellow>
                           <xmpG:black>0.000000</xmpG:black>
                        </rdf:li>
                        <rdf:li rdf:parseType="Resource">
                           <xmpG:swatchName>CMYK magenta</xmpG:swatchName>
                           <xmpG:mode>CMYK</xmpG:mode>
                           <xmpG:type>PROCESS</xmpG:type>
                           <xmpG:cyan>0.000000</xmpG:cyan>
                           <xmpG:magenta>100.000000</xmpG:magenta>
                           <xmpG:yellow>0.000000</xmpG:yellow>
                           <xmpG:black>0.000000</xmpG:black>
                        </rdf:li>
                        <rdf:li rdf:parseType="Resource">
                           <xmpG:swatchName>C=15 M=100 Y=90 K=10</xmpG:swatchName>
                           <xmpG:mode>CMYK</xmpG:mode>
                           <xmpG:type>PROCESS</xmpG:type>
                           <xmpG:cyan>15.000000</xmpG:cyan>
                           <xmpG:magenta>100.000000</xmpG:magenta>
                           <xmpG:yellow>90.000000</xmpG:yellow>
                           <xmpG:black>10.000000</xmpG:black>
                        </rdf:li>
                        <rdf:li rdf:parseType="Resource">
                           <xmpG:swatchName>C=0 M=90 Y=85 K=0</xmpG:swatchName>
                           <xmpG:mode>CMYK</xmpG:mode>
                           <xmpG:type>PROCESS</xmpG:type>
                           <xmpG:cyan>0.000000</xmpG:cyan>
                           <xmpG:magenta>90.000000</xmpG:magenta>
                           <xmpG:yellow>85.000000</xmpG:yellow>
                           <xmpG:black>0.000000</xmpG:black>
                        </rdf:li>
                        <rdf:li rdf:parseType="Resource">
                           <xmpG:swatchName>C=0 M=80 Y=95 K=0</xmpG:swatchName>
                           <xmpG:mode>CMYK</xmpG:mode>
                           <xmpG:type>PROCESS</xmpG:type>
                           <xmpG:cyan>0.000000</xmpG:cyan>
                           <xmpG:magenta>80.000000</xmpG:magenta>
                           <xmpG:yellow>95.000000</xmpG:yellow>
                           <xmpG:black>0.000000</xmpG:black>
                        </rdf:li>
                        <rdf:li rdf:parseType="Resource">
                           <xmpG:swatchName>C=0 M=50 Y=100 K=0</xmpG:swatchName>
                           <xmpG:mode>CMYK</xmpG:mode>
                           <xmpG:type>PROCESS</xmpG:type>
                           <xmpG:cyan>0.000000</xmpG:cyan>
                           <xmpG:magenta>50.000000</xmpG:magenta>
                           <xmpG:yellow>100.000000</xmpG:yellow>
                           <xmpG:black>0.000000</xmpG:black>
                        </rdf:li>
                        <rdf:li rdf:parseType="Resource">
                           <xmpG:swatchName>C=0 M=35 Y=85 K=0</xmpG:swatchName>
                           <xmpG:mode>CMYK</xmpG:mode>
                           <xmpG:type>PROCESS</xmpG:type>
                           <xmpG:cyan>0.000000</xmpG:cyan>
                           <xmpG:magenta>35.000000</xmpG:magenta>
                           <xmpG:yellow>85.000000</xmpG:yellow>
                           <xmpG:black>0.000000</xmpG:black>
                        </rdf:li>
                        <rdf:li rdf:parseType="Resource">
                           <xmpG:swatchName>C=5 M=0 Y=90 K=0</xmpG:swatchName>
                           <xmpG:mode>CMYK</xmpG:mode>
                           <xmpG:type>PROCESS</xmpG:type>
                           <xmpG:cyan>5.000000</xmpG:cyan>
                           <xmpG:magenta>0.000000</xmpG:magenta>
                           <xmpG:yellow>90.000000</xmpG:yellow>
                           <xmpG:black>0.000000</xmpG:black>
                        </rdf:li>
                        <rdf:li rdf:parseType="Resource">
                           <xmpG:swatchName>C=20 M=0 Y=100 K=0</xmpG:swatchName>
                           <xmpG:mode>CMYK</xmpG:mode>
                           <xmpG:type>PROCESS</xmpG:type>
                           <xmpG:cyan>20.000000</xmpG:cyan>
                           <xmpG:magenta>0.000000</xmpG:magenta>
                           <xmpG:yellow>100.000000</xmpG:yellow>
                           <xmpG:black>0.000000</xmpG:black>
                        </rdf:li>
                        <rdf:li rdf:parseType="Resource">
                           <xmpG:swatchName>C=50 M=0 Y=100 K=0</xmpG:swatchName>
                           <xmpG:mode>CMYK</xmpG:mode>
                           <xmpG:type>PROCESS</xmpG:type>
                           <xmpG:cyan>50.000000</xmpG:cyan>
                           <xmpG:magenta>0.000000</xmpG:magenta>
                           <xmpG:yellow>100.000000</xmpG:yellow>
                           <xmpG:black>0.000000</xmpG:black>
                        </rdf:li>
                        <rdf:li rdf:parseType="Resource">
                           <xmpG:swatchName>C=75 M=0 Y=100 K=0</xmpG:swatchName>
                           <xmpG:mode>CMYK</xmpG:mode>
                           <xmpG:type>PROCESS</xmpG:type>
                           <xmpG:cyan>75.000000</xmpG:cyan>
                           <xmpG:magenta>0.000000</xmpG:magenta>
                           <xmpG:yellow>100.000000</xmpG:yellow>
                           <xmpG:black>0.000000</xmpG:black>
                        </rdf:li>
                        <rdf:li rdf:parseType="Resource">
                           <xmpG:swatchName>C=85 M=10 Y=100 K=10</xmpG:swatchName>
                           <xmpG:mode>CMYK</xmpG:mode>
                           <xmpG:type>PROCESS</xmpG:type>
                           <xmpG:cyan>85.000000</xmpG:cyan>
                           <xmpG:magenta>10.000000</xmpG:magenta>
                           <xmpG:yellow>100.000000</xmpG:yellow>
                           <xmpG:black>10.000000</xmpG:black>
                        </rdf:li>
                        <rdf:li rdf:parseType="Resource">
                           <xmpG:swatchName>C=90 M=30 Y=95 K=30</xmpG:swatchName>
                           <xmpG:mode>CMYK</xmpG:mode>
                           <xmpG:type>PROCESS</xmpG:type>
                           <xmpG:cyan>90.000000</xmpG:cyan>
                           <xmpG:magenta>30.000000</xmpG:magenta>
                           <xmpG:yellow>95.000000</xmpG:yellow>
                           <xmpG:black>30.000000</xmpG:black>
                        </rdf:li>
                        <rdf:li rdf:parseType="Resource">
                           <xmpG:swatchName>C=75 M=0 Y=75 K=0</xmpG:swatchName>
                           <xmpG:mode>CMYK</xmpG:mode>
                           <xmpG:type>PROCESS</xmpG:type>
                           <xmpG:cyan>75.000000</xmpG:cyan>
                           <xmpG:magenta>0.000000</xmpG:magenta>
                           <xmpG:yellow>75.000000</xmpG:yellow>
                           <xmpG:black>0.000000</xmpG:black>
                        </rdf:li>
                        <rdf:li rdf:parseType="Resource">
                           <xmpG:swatchName>C=80 M=10 Y=45 K=0</xmpG:swatchName>
                           <xmpG:mode>CMYK</xmpG:mode>
                           <xmpG:type>PROCESS</xmpG:type>
                           <xmpG:cyan>80.000000</xmpG:cyan>
                           <xmpG:magenta>10.000000</xmpG:magenta>
                           <xmpG:yellow>45.000000</xmpG:yellow>
                           <xmpG:black>0.000000</xmpG:black>
                        </rdf:li>
                        <rdf:li rdf:parseType="Resource">
                           <xmpG:swatchName>C=70 M=15 Y=0 K=0</xmpG:swatchName>
                           <xmpG:mode>CMYK</xmpG:mode>
                           <xmpG:type>PROCESS</xmpG:type>
                           <xmpG:cyan>70.000000</xmpG:cyan>
                           <xmpG:magenta>15.000000</xmpG:magenta>
                           <xmpG:yellow>0.000000</xmpG:yellow>
                           <xmpG:black>0.000000</xmpG:black>
                        </rdf:li>
                        <rdf:li rdf:parseType="Resource">
                           <xmpG:swatchName>C=85 M=50 Y=0 K=0</xmpG:swatchName>
                           <xmpG:mode>CMYK</xmpG:mode>
                           <xmpG:type>PROCESS</xmpG:type>
                           <xmpG:cyan>85.000000</xmpG:cyan>
                           <xmpG:magenta>50.000000</xmpG:magenta>
                           <xmpG:yellow>0.000000</xmpG:yellow>
                           <xmpG:black>0.000000</xmpG:black>
                        </rdf:li>
                        <rdf:li rdf:parseType="Resource">
                           <xmpG:swatchName>C=100 M=95 Y=5 K=0</xmpG:swatchName>
                           <xmpG:mode>CMYK</xmpG:mode>
                           <xmpG:type>PROCESS</xmpG:type>
                           <xmpG:cyan>100.000000</xmpG:cyan>
                           <xmpG:magenta>95.000000</xmpG:magenta>
                           <xmpG:yellow>5.000000</xmpG:yellow>
                           <xmpG:black>0.000000</xmpG:black>
                        </rdf:li>
                        <rdf:li rdf:parseType="Resource">
                           <xmpG:swatchName>C=100 M=100 Y=25 K=25</xmpG:swatchName>
                           <xmpG:mode>CMYK</xmpG:mode>
                           <xmpG:type>PROCESS</xmpG:type>
                           <xmpG:cyan>100.000000</xmpG:cyan>
                           <xmpG:magenta>100.000000</xmpG:magenta>
                           <xmpG:yellow>25.000000</xmpG:yellow>
                           <xmpG:black>25.000000</xmpG:black>
                        </rdf:li>
                        <rdf:li rdf:parseType="Resource">
                           <xmpG:swatchName>C=75 M=100 Y=0 K=0</xmpG:swatchName>
                           <xmpG:mode>CMYK</xmpG:mode>
                           <xmpG:type>PROCESS</xmpG:type>
                           <xmpG:cyan>75.000000</xmpG:cyan>
                           <xmpG:magenta>100.000000</xmpG:magenta>
                           <xmpG:yellow>0.000000</xmpG:yellow>
                           <xmpG:black>0.000000</xmpG:black>
                        </rdf:li>
                        <rdf:li rdf:parseType="Resource">
                           <xmpG:swatchName>C=50 M=100 Y=0 K=0</xmpG:swatchName>
                           <xmpG:mode>CMYK</xmpG:mode>
                           <xmpG:type>PROCESS</xmpG:type>
                           <xmpG:cyan>50.000000</xmpG:cyan>
                           <xmpG:magenta>100.000000</xmpG:magenta>
                           <xmpG:yellow>0.000000</xmpG:yellow>
                           <xmpG:black>0.000000</xmpG:black>
                        </rdf:li>
                        <rdf:li rdf:parseType="Resource">
                           <xmpG:swatchName>C=35 M=100 Y=35 K=10</xmpG:swatchName>
                           <xmpG:mode>CMYK</xmpG:mode>
                           <xmpG:type>PROCESS</xmpG:type>
                           <xmpG:cyan>35.000000</xmpG:cyan>
                           <xmpG:magenta>100.000000</xmpG:magenta>
                           <xmpG:yellow>35.000000</xmpG:yellow>
                           <xmpG:black>10.000000</xmpG:black>
                        </rdf:li>
                        <rdf:li rdf:parseType="Resource">
                           <xmpG:swatchName>C=10 M=100 Y=50 K=0</xmpG:swatchName>
                           <xmpG:mode>CMYK</xmpG:mode>
                           <xmpG:type>PROCESS</xmpG:type>
                           <xmpG:cyan>10.000000</xmpG:cyan>
                           <xmpG:magenta>100.000000</xmpG:magenta>
                           <xmpG:yellow>50.000000</xmpG:yellow>
                           <xmpG:black>0.000000</xmpG:black>
                        </rdf:li>
                        <rdf:li rdf:parseType="Resource">
                           <xmpG:swatchName>C=0 M=95 Y=20 K=0</xmpG:swatchName>
                           <xmpG:mode>CMYK</xmpG:mode>
                           <xmpG:type>PROCESS</xmpG:type>
                           <xmpG:cyan>0.000000</xmpG:cyan>
                           <xmpG:magenta>95.000000</xmpG:magenta>
                           <xmpG:yellow>20.000000</xmpG:yellow>
                           <xmpG:black>0.000000</xmpG:black>
                        </rdf:li>
                        <rdf:li rdf:parseType="Resource">
                           <xmpG:swatchName>C=25 M=25 Y=40 K=0</xmpG:swatchName>
                           <xmpG:mode>CMYK</xmpG:mode>
                           <xmpG:type>PROCESS</xmpG:type>
                           <xmpG:cyan>25.000000</xmpG:cyan>
                           <xmpG:magenta>25.000000</xmpG:magenta>
                           <xmpG:yellow>40.000000</xmpG:yellow>
                           <xmpG:black>0.000000</xmpG:black>
                        </rdf:li>
                        <rdf:li rdf:parseType="Resource">
                           <xmpG:swatchName>C=40 M=45 Y=50 K=5</xmpG:swatchName>
                           <xmpG:mode>CMYK</xmpG:mode>
                           <xmpG:type>PROCESS</xmpG:type>
                           <xmpG:cyan>40.000000</xmpG:cyan>
                           <xmpG:magenta>45.000000</xmpG:magenta>
                           <xmpG:yellow>50.000000</xmpG:yellow>
                           <xmpG:black>5.000000</xmpG:black>
                        </rdf:li>
                        <rdf:li rdf:parseType="Resource">
                           <xmpG:swatchName>C=50 M=50 Y=60 K=25</xmpG:swatchName>
                           <xmpG:mode>CMYK</xmpG:mode>
                           <xmpG:type>PROCESS</xmpG:type>
                           <xmpG:cyan>50.000000</xmpG:cyan>
                           <xmpG:magenta>50.000000</xmpG:magenta>
                           <xmpG:yellow>60.000000</xmpG:yellow>
                           <xmpG:black>25.000000</xmpG:black>
                        </rdf:li>
                        <rdf:li rdf:parseType="Resource">
                           <xmpG:swatchName>C=55 M=60 Y=65 K=40</xmpG:swatchName>
                           <xmpG:mode>CMYK</xmpG:mode>
                           <xmpG:type>PROCESS</xmpG:type>
                           <xmpG:cyan>55.000000</xmpG:cyan>
                           <xmpG:magenta>60.000000</xmpG:magenta>
                           <xmpG:yellow>65.000000</xmpG:yellow>
                           <xmpG:black>40.000000</xmpG:black>
                        </rdf:li>
                        <rdf:li rdf:parseType="Resource">
                           <xmpG:swatchName>C=25 M=40 Y=65 K=0</xmpG:swatchName>
                           <xmpG:mode>CMYK</xmpG:mode>
                           <xmpG:type>PROCESS</xmpG:type>
                           <xmpG:cyan>25.000000</xmpG:cyan>
                           <xmpG:magenta>40.000000</xmpG:magenta>
                           <xmpG:yellow>65.000000</xmpG:yellow>
                           <xmpG:black>0.000000</xmpG:black>
                        </rdf:li>
                        <rdf:li rdf:parseType="Resource">
                           <xmpG:swatchName>C=30 M=50 Y=75 K=10</xmpG:swatchName>
                           <xmpG:mode>CMYK</xmpG:mode>
                           <xmpG:type>PROCESS</xmpG:type>
                           <xmpG:cyan>30.000000</xmpG:cyan>
                           <xmpG:magenta>50.000000</xmpG:magenta>
                           <xmpG:yellow>75.000000</xmpG:yellow>
                           <xmpG:black>10.000000</xmpG:black>
                        </rdf:li>
                        <rdf:li rdf:parseType="Resource">
                           <xmpG:swatchName>C=35 M=60 Y=80 K=25</xmpG:swatchName>
                           <xmpG:mode>CMYK</xmpG:mode>
                           <xmpG:type>PROCESS</xmpG:type>
                           <xmpG:cyan>35.000000</xmpG:cyan>
                           <xmpG:magenta>60.000000</xmpG:magenta>
                           <xmpG:yellow>80.000000</xmpG:yellow>
                           <xmpG:black>25.000000</xmpG:black>
                        </rdf:li>
                        <rdf:li rdf:parseType="Resource">
                           <xmpG:swatchName>C=40 M=65 Y=90 K=35</xmpG:swatchName>
                           <xmpG:mode>CMYK</xmpG:mode>
                           <xmpG:type>PROCESS</xmpG:type>
                           <xmpG:cyan>40.000000</xmpG:cyan>
                           <xmpG:magenta>65.000000</xmpG:magenta>
                           <xmpG:yellow>90.000000</xmpG:yellow>
                           <xmpG:black>35.000000</xmpG:black>
                        </rdf:li>
                        <rdf:li rdf:parseType="Resource">
                           <xmpG:swatchName>C=40 M=70 Y=100 K=50</xmpG:swatchName>
                           <xmpG:mode>CMYK</xmpG:mode>
                           <xmpG:type>PROCESS</xmpG:type>
                           <xmpG:cyan>40.000000</xmpG:cyan>
                           <xmpG:magenta>70.000000</xmpG:magenta>
                           <xmpG:yellow>100.000000</xmpG:yellow>
                           <xmpG:black>50.000000</xmpG:black>
                        </rdf:li>
                        <rdf:li rdf:parseType="Resource">
                           <xmpG:swatchName>C=50 M=70 Y=80 K=70</xmpG:swatchName>
                           <xmpG:mode>CMYK</xmpG:mode>
                           <xmpG:type>PROCESS</xmpG:type>
                           <xmpG:cyan>50.000000</xmpG:cyan>
                           <xmpG:magenta>70.000000</xmpG:magenta>
                           <xmpG:yellow>80.000000</xmpG:yellow>
                           <xmpG:black>70.000000</xmpG:black>
                        </rdf:li>
                        <rdf:li rdf:parseType="Resource">
                           <xmpG:swatchName>C=0 M=54 Y=62 K=0</xmpG:swatchName>
                           <xmpG:mode>CMYK</xmpG:mode>
                           <xmpG:type>PROCESS</xmpG:type>
                           <xmpG:cyan>0.000000</xmpG:cyan>
                           <xmpG:magenta>54.647130</xmpG:magenta>
                           <xmpG:yellow>62.209505</xmpG:yellow>
                           <xmpG:black>0.000000</xmpG:black>
                        </rdf:li>
                        <rdf:li rdf:parseType="Resource">
                           <xmpG:swatchName>C=53 M=100 Y=23 K=16</xmpG:swatchName>
                           <xmpG:mode>CMYK</xmpG:mode>
                           <xmpG:type>PROCESS</xmpG:type>
                           <xmpG:cyan>52.800792</xmpG:cyan>
                           <xmpG:magenta>100.000000</xmpG:magenta>
                           <xmpG:yellow>22.610818</xmpG:yellow>
                           <xmpG:black>15.677118</xmpG:black>
                        </rdf:li>
                     </rdf:Seq>
                  </xmpG:Colorants>
               </rdf:li>
               <rdf:li rdf:parseType="Resource">
                  <xmpG:groupName>Gråtoner</xmpG:groupName>
                  <xmpG:groupType>1</xmpG:groupType>
                  <xmpG:Colorants>
                     <rdf:Seq>
                        <rdf:li rdf:parseType="Resource">
                           <xmpG:swatchName>C=0 M=0 Y=0 K=100</xmpG:swatchName>
                           <xmpG:mode>CMYK</xmpG:mode>
                           <xmpG:type>PROCESS</xmpG:type>
                           <xmpG:cyan>0.000000</xmpG:cyan>
                           <xmpG:magenta>0.000000</xmpG:magenta>
                           <xmpG:yellow>0.000000</xmpG:yellow>
                           <xmpG:black>100.000000</xmpG:black>
                        </rdf:li>
                        <rdf:li rdf:parseType="Resource">
                           <xmpG:swatchName>C=0 M=0 Y=0 K=90</xmpG:swatchName>
                           <xmpG:mode>CMYK</xmpG:mode>
                           <xmpG:type>PROCESS</xmpG:type>
                           <xmpG:cyan>0.000000</xmpG:cyan>
                           <xmpG:magenta>0.000000</xmpG:magenta>
                           <xmpG:yellow>0.000000</xmpG:yellow>
                           <xmpG:black>89.999400</xmpG:black>
                        </rdf:li>
                        <rdf:li rdf:parseType="Resource">
                           <xmpG:swatchName>C=0 M=0 Y=0 K=80</xmpG:swatchName>
                           <xmpG:mode>CMYK</xmpG:mode>
                           <xmpG:type>PROCESS</xmpG:type>
                           <xmpG:cyan>0.000000</xmpG:cyan>
                           <xmpG:magenta>0.000000</xmpG:magenta>
                           <xmpG:yellow>0.000000</xmpG:yellow>
                           <xmpG:black>79.998800</xmpG:black>
                        </rdf:li>
                        <rdf:li rdf:parseType="Resource">
                           <xmpG:swatchName>C=0 M=0 Y=0 K=70</xmpG:swatchName>
                           <xmpG:mode>CMYK</xmpG:mode>
                           <xmpG:type>PROCESS</xmpG:type>
                           <xmpG:cyan>0.000000</xmpG:cyan>
                           <xmpG:magenta>0.000000</xmpG:magenta>
                           <xmpG:yellow>0.000000</xmpG:yellow>
                           <xmpG:black>69.999700</xmpG:black>
                        </rdf:li>
                        <rdf:li rdf:parseType="Resource">
                           <xmpG:swatchName>C=0 M=0 Y=0 K=60</xmpG:swatchName>
                           <xmpG:mode>CMYK</xmpG:mode>
                           <xmpG:type>PROCESS</xmpG:type>
                           <xmpG:cyan>0.000000</xmpG:cyan>
                           <xmpG:magenta>0.000000</xmpG:magenta>
                           <xmpG:yellow>0.000000</xmpG:yellow>
                           <xmpG:black>59.999100</xmpG:black>
                        </rdf:li>
                        <rdf:li rdf:parseType="Resource">
                           <xmpG:swatchName>C=0 M=0 Y=0 K=50</xmpG:swatchName>
                           <xmpG:mode>CMYK</xmpG:mode>
                           <xmpG:type>PROCESS</xmpG:type>
                           <xmpG:cyan>0.000000</xmpG:cyan>
                           <xmpG:magenta>0.000000</xmpG:magenta>
                           <xmpG:yellow>0.000000</xmpG:yellow>
                           <xmpG:black>50.000000</xmpG:black>
                        </rdf:li>
                        <rdf:li rdf:parseType="Resource">
                           <xmpG:swatchName>C=0 M=0 Y=0 K=40</xmpG:swatchName>
                           <xmpG:mode>CMYK</xmpG:mode>
                           <xmpG:type>PROCESS</xmpG:type>
                           <xmpG:cyan>0.000000</xmpG:cyan>
                           <xmpG:magenta>0.000000</xmpG:magenta>
                           <xmpG:yellow>0.000000</xmpG:yellow>
                           <xmpG:black>39.999400</xmpG:black>
                        </rdf:li>
                        <rdf:li rdf:parseType="Resource">
                           <xmpG:swatchName>C=0 M=0 Y=0 K=30</xmpG:swatchName>
                           <xmpG:mode>CMYK</xmpG:mode>
                           <xmpG:type>PROCESS</xmpG:type>
                           <xmpG:cyan>0.000000</xmpG:cyan>
                           <xmpG:magenta>0.000000</xmpG:magenta>
                           <xmpG:yellow>0.000000</xmpG:yellow>
                           <xmpG:black>29.998800</xmpG:black>
                        </rdf:li>
                        <rdf:li rdf:parseType="Resource">
                           <xmpG:swatchName>C=0 M=0 Y=0 K=20</xmpG:swatchName>
                           <xmpG:mode>CMYK</xmpG:mode>
                           <xmpG:type>PROCESS</xmpG:type>
                           <xmpG:cyan>0.000000</xmpG:cyan>
                           <xmpG:magenta>0.000000</xmpG:magenta>
                           <xmpG:yellow>0.000000</xmpG:yellow>
                           <xmpG:black>19.999700</xmpG:black>
                        </rdf:li>
                        <rdf:li rdf:parseType="Resource">
                           <xmpG:swatchName>C=0 M=0 Y=0 K=10</xmpG:swatchName>
                           <xmpG:mode>CMYK</xmpG:mode>
                           <xmpG:type>PROCESS</xmpG:type>
                           <xmpG:cyan>0.000000</xmpG:cyan>
                           <xmpG:magenta>0.000000</xmpG:magenta>
                           <xmpG:yellow>0.000000</xmpG:yellow>
                           <xmpG:black>9.999100</xmpG:black>
                        </rdf:li>
                        <rdf:li rdf:parseType="Resource">
                           <xmpG:swatchName>C=0 M=0 Y=0 K=5</xmpG:swatchName>
                           <xmpG:mode>CMYK</xmpG:mode>
                           <xmpG:type>PROCESS</xmpG:type>
                           <xmpG:cyan>0.000000</xmpG:cyan>
                           <xmpG:magenta>0.000000</xmpG:magenta>
                           <xmpG:yellow>0.000000</xmpG:yellow>
                           <xmpG:black>4.998800</xmpG:black>
                        </rdf:li>
                     </rdf:Seq>
                  </xmpG:Colorants>
               </rdf:li>
               <rdf:li rdf:parseType="Resource">
                  <xmpG:groupName>Skarpa färger</xmpG:groupName>
                  <xmpG:groupType>1</xmpG:groupType>
                  <xmpG:Colorants>
                     <rdf:Seq>
                        <rdf:li rdf:parseType="Resource">
                           <xmpG:swatchName>C=0 M=100 Y=100 K=0</xmpG:swatchName>
                           <xmpG:mode>CMYK</xmpG:mode>
                           <xmpG:type>PROCESS</xmpG:type>
                           <xmpG:cyan>0.000000</xmpG:cyan>
                           <xmpG:magenta>100.000000</xmpG:magenta>
                           <xmpG:yellow>100.000000</xmpG:yellow>
                           <xmpG:black>0.000000</xmpG:black>
                        </rdf:li>
                        <rdf:li rdf:parseType="Resource">
                           <xmpG:swatchName>C=0 M=75 Y=100 K=0</xmpG:swatchName>
                           <xmpG:mode>CMYK</xmpG:mode>
                           <xmpG:type>PROCESS</xmpG:type>
                           <xmpG:cyan>0.000000</xmpG:cyan>
                           <xmpG:magenta>75.000000</xmpG:magenta>
                           <xmpG:yellow>100.000000</xmpG:yellow>
                           <xmpG:black>0.000000</xmpG:black>
                        </rdf:li>
                        <rdf:li rdf:parseType="Resource">
                           <xmpG:swatchName>C=0 M=10 Y=95 K=0</xmpG:swatchName>
                           <xmpG:mode>CMYK</xmpG:mode>
                           <xmpG:type>PROCESS</xmpG:type>
                           <xmpG:cyan>0.000000</xmpG:cyan>
                           <xmpG:magenta>10.000000</xmpG:magenta>
                           <xmpG:yellow>95.000000</xmpG:yellow>
                           <xmpG:black>0.000000</xmpG:black>
                        </rdf:li>
                        <rdf:li rdf:parseType="Resource">
                           <xmpG:swatchName>C=85 M=10 Y=100 K=0</xmpG:swatchName>
                           <xmpG:mode>CMYK</xmpG:mode>
                           <xmpG:type>PROCESS</xmpG:type>
                           <xmpG:cyan>85.000000</xmpG:cyan>
                           <xmpG:magenta>10.000000</xmpG:magenta>
                           <xmpG:yellow>100.000000</xmpG:yellow>
                           <xmpG:black>0.000000</xmpG:black>
                        </rdf:li>
                        <rdf:li rdf:parseType="Resource">
                           <xmpG:swatchName>C=100 M=90 Y=0 K=0</xmpG:swatchName>
                           <xmpG:mode>CMYK</xmpG:mode>
                           <xmpG:type>PROCESS</xmpG:type>
                           <xmpG:cyan>100.000000</xmpG:cyan>
                           <xmpG:magenta>90.000000</xmpG:magenta>
                           <xmpG:yellow>0.000000</xmpG:yellow>
                           <xmpG:black>0.000000</xmpG:black>
                        </rdf:li>
                        <rdf:li rdf:parseType="Resource">
                           <xmpG:swatchName>C=60 M=90 Y=0 K=0</xmpG:swatchName>
                           <xmpG:mode>CMYK</xmpG:mode>
                           <xmpG:type>PROCESS</xmpG:type>
                           <xmpG:cyan>60.000000</xmpG:cyan>
                           <xmpG:magenta>90.000000</xmpG:magenta>
                           <xmpG:yellow>0.003100</xmpG:yellow>
                           <xmpG:black>0.003100</xmpG:black>
                        </rdf:li>
                     </rdf:Seq>
                  </xmpG:Colorants>
               </rdf:li>
            </rdf:Seq>
         </xmpTPg:SwatchGroups>
         <pdf:Producer>Adobe PDF library 10.01</pdf:Producer>
      </rdf:Description>
   </rdf:RDF>
</x:xmpmeta>
                                                                                                    
                                                                                                    
                                                                                                    
                                                                                                    
                                                                                                    
                                                                                                    
                                                                                                    
                                                                                                    
                                                                                                    
                                                                                                    
                                                                                                    
                                                                                                    
                                                                                                    
                                                                                                    
                                                                                                    
                                                                                                    
                                                                                                    
                                                                                                    
                                                                                                    
                                                                                                    
                           
<?xpacket end="w"?>
	</metadata>
<g id="Lager_1">
</g>
<g id="Lager_1_kopia">
	<circle id="XMLID_73_" class="st0" cx="50" cy="50" r="50"/>
</g>
<g id="Lager_1_kopia_2">
</g>
<g id="Arbetsrätt">
	<path id="XMLID_115_" class="st1" d="M81.5,40.4c-2-2-5.3-2-7.3,0l-0.7,0.7L57.3,24.8l0.7-0.7c2-2,2-5.3,0-7.3c-2-2-5.3-2-7.3,0
		L38.1,29.5c-2,2-2,5.3,0,7.3c2,2,5.1,2,7.1,0.1l5.7,5.7L25,68.5c-1.3,1.3-1.3,3.5,0,4.9s3.5,1.3,4.9,0l25.9-25.9l5.7,5.7
		c-1.9,2-1.8,5.2,0.1,7.1c2,2,5.3,2,7.3,0l12.6-12.6C83.5,45.7,83.5,42.4,81.5,40.4z"/>
</g>
<g id="HR_och_lön">
</g>
<g id="Talent_management">
</g>
</svg>
