<?xml version="1.0" encoding="utf-8"?>
<!-- Generator: Adobe Illustrator 19.2.0, SVG Export Plug-In . SVG Version: 6.00 Build 0)  -->
<svg version="1.1" id="Lager_1" xmlns="http://www.w3.org/2000/svg" xmlns:xlink="http://www.w3.org/1999/xlink" x="0px" y="0px"
	 viewBox="0 0 17 17" width="17" height="17" style="enable-background:new 0 0 17 17;" xml:space="preserve">
<style type="text/css">
	.st0{fill:none;stroke:#F28E62;stroke-width:1.5;stroke-linecap:round;stroke-linejoin:round;stroke-miterlimit:10;}
	.st1{fill:none;stroke:#D4DAD2;stroke-width:1.5;stroke-linecap:round;stroke-linejoin:round;stroke-miterlimit:10;}
	.st2{fill:none;stroke:#811D63;stroke-width:1.5;stroke-linecap:round;stroke-linejoin:round;stroke-miterlimit:10;}
	.st3{fill:none;stroke:#FFFFFF;stroke-width:1.5;stroke-linecap:round;stroke-linejoin:round;stroke-miterlimit:10;}
</style>
<g id="XMLID_1_">
	<path id="XMLID_19_" class="st0" d="M15.4,5.4C15.8,6.3,16,7.3,16,8.3c0,4.1-3.4,7.5-7.5,7.5S1,12.4,1,8.3s3.4-7.5,7.5-7.5
		c1.5,0,2.9,0.5,4.1,1.2"/>
	<polyline id="XMLID_74_" class="st0" points="6.1,6.1 8.9,8.8 15.8,2 	"/>
</g>
<circle id="XMLID_320_" class="st1" cx="45.4" cy="8.4" r="7.5"/>
<polyline id="XMLID_319_" class="st1" points="48.7,7.1 45.3,10.5 41.9,7.1 "/>
<line id="XMLID_312_" class="st2" x1="89.8" y1="1.1" x2="79.7" y2="11.2"/>
<polyline id="XMLID_314_" class="st2" points="90,6.1 90,0.8 84.8,0.8 "/>
<polyline id="XMLID_313_" class="st2" points="80.5,0.8 75,0.8 75,15.8 90,15.8 90,10.4 "/>
<path id="XMLID_717_" class="st3" d="M122.6,7.2"/>
<circle id="XMLID_210_" class="st3" cx="121.5" cy="6.4" r="5.1"/>
<line id="XMLID_211_" class="st3" x1="117.6" y1="10.5" x2="112.5" y2="15.5"/>
<rect id="XMLID_187_" x="149.5" y="3.3" class="st2" width="14" height="12"/>
<line id="XMLID_188_" class="st2" x1="153.3" y1="1.6" x2="153.3" y2="4.7"/>
<line id="XMLID_190_" class="st2" x1="159.7" y1="1.6" x2="159.7" y2="4.7"/>
</svg>
