<?xml version="1.0" encoding="utf-8"?>
<!-- Generator: Adobe Illustrator 19.2.0, SVG Export Plug-In . SVG Version: 6.00 Build 0)  -->
<svg version="1.1" id="Lager_1" xmlns="http://www.w3.org/2000/svg" xmlns:xlink="http://www.w3.org/1999/xlink" x="0px" y="0px"
	 viewBox="0 0 17 21" enable-background="new 0 0 17 21" xml:space="preserve">
<g id="XMLID_55_">
	
		<polygon id="XMLID_56_" fill="none" stroke="#79797B" stroke-width="1.5" stroke-linecap="round" stroke-linejoin="round" stroke-miterlimit="10" points="
		3.5,1 1,1 1,15.4 9.6,15.4 13.8,19.7 13.8,15.4 14.5,15.4 15.9,15.4 15.9,1 	"/>
</g>
<line id="XMLID_54_" fill="none" stroke="#79797B" stroke-width="1.5" stroke-linecap="round" stroke-linejoin="round" stroke-miterlimit="10" x1="3.6" y1="4.5" x2="13.2" y2="4.5"/>
<line id="XMLID_53_" fill="none" stroke="#79797B" stroke-width="1.5" stroke-linecap="round" stroke-linejoin="round" stroke-miterlimit="10" x1="3.6" y1="8.2" x2="13.2" y2="8.2"/>
<line id="XMLID_52_" fill="none" stroke="#79797B" stroke-width="1.5" stroke-linecap="round" stroke-linejoin="round" stroke-miterlimit="10" x1="3.6" y1="11.7" x2="13.2" y2="11.7"/>
</svg>
