<?xml version="1.0" encoding="utf-8"?>
<!-- Generator: Adobe Illustrator 19.2.0, SVG Export Plug-In . SVG Version: 6.00 Build 0)  -->
<svg version="1.1" id="Lager_1" xmlns="http://www.w3.org/2000/svg" xmlns:xlink="http://www.w3.org/1999/xlink" x="0px" y="0px"
	 viewBox="0 0 40 40" width="40" height="40" style="enable-background:new 0 0 40 40;" xml:space="preserve">
<style type="text/css">
	.st0{fill:none;stroke:#F28E62;stroke-width:1.5;stroke-linecap:round;stroke-linejoin:round;stroke-miterlimit:10;}
	.st1{fill:none;stroke:#F28E62;stroke-width:1.5;stroke-linecap:round;stroke-miterlimit:10;}
</style>
<polygon id="XMLID_743_" class="st0" points="13.9,30.2 2,34.6 2,9.9 13.9,5.5 "/>
<polygon id="XMLID_746_" class="st0" points="37.8,30.2 25.9,34.6 25.9,9.9 37.8,5.5 "/>
<polygon id="XMLID_744_" class="st0" points="13.9,30.2 25.9,34.6 25.9,9.9 13.9,5.5 "/>
</svg>
