<?xml version="1.0" encoding="utf-8"?>
<!-- Generator: Adobe Illustrator 19.2.0, SVG Export Plug-In . SVG Version: 6.00 Build 0)  -->
<svg version="1.1" id="Lager_1" xmlns="http://www.w3.org/2000/svg" xmlns:xlink="http://www.w3.org/1999/xlink" x="0px" y="0px"
	 viewBox="0 0 60 60" width="60" height="60" style="enable-background:new 0 0 60 60;" xml:space="preserve">
<style type="text/css">
	.st0{fill:none;stroke:#F28D62;stroke-width:1.5;stroke-linecap:round;stroke-linejoin:round;stroke-miterlimit:10;}
	.st1{fill:none;stroke:#811D63;stroke-width:1.5;stroke-linecap:round;stroke-linejoin:round;stroke-miterlimit:10;}
	.st2{fill:#811D63;}
	.st3{fill:none;stroke:#F28E62;stroke-width:1.5;stroke-linecap:round;stroke-linejoin:round;stroke-miterlimit:10;}
</style>
<path id="XMLID_115_" class="st0" d="M57,25.8c-1.9-1.9-5.1-1.9-7.1,0l-0.7,0.7L33.5,10.7l0.7-0.7c1.9-1.9,1.9-5.1,0-7.1
	S29,1,27.1,2.9L14.9,15.2c-1.9,1.9-1.9,5.1,0,7.1c1.9,1.9,5,1.9,6.9,0.1l5.5,5.5L2.1,53.1c-1.3,1.3-1.3,3.4,0,4.7
	c1.3,1.3,3.4,1.3,4.7,0L32,32.6l5.5,5.5c-1.8,2-1.8,5,0.1,6.9c1.9,1.9,5.1,1.9,7.1,0L57,32.8C58.9,30.9,58.9,27.7,57,25.8z"/>
</svg>
