<?xml version="1.0" encoding="utf-8"?>
<!-- Generator: Adobe Illustrator 19.2.0, SVG Export Plug-In . SVG Version: 6.00 Build 0)  -->
<svg version="1.1" id="Lager_1" xmlns="http://www.w3.org/2000/svg" xmlns:xlink="http://www.w3.org/1999/xlink" x="0px" y="0px"
	 viewBox="0 0 60 60" width="60" height="60" style="enable-background:new 0 0 60 60;" xml:space="preserve">
<style type="text/css">
	.st0{fill:none;stroke:#F28D62;stroke-width:1.5;stroke-linecap:round;stroke-linejoin:round;stroke-miterlimit:10;}
	.st1{fill:none;stroke:#811D63;stroke-width:1.5;stroke-linecap:round;stroke-linejoin:round;stroke-miterlimit:10;}
	.st2{fill:#811D63;}
	.st3{fill:none;stroke:#F28E62;stroke-width:1.5;stroke-linecap:round;stroke-linejoin:round;stroke-miterlimit:10;}
</style>
<line id="XMLID_502_" class="st3" x1="20.5" y1="39.6" x2="1.4" y2="58.8"/>
<circle id="XMLID_583_" class="st3" cx="41.9" cy="16.3" r="6.9"/>
<g id="XMLID_584_">
	<path id="XMLID_585_" class="st3" d="M41.9,27.3c5.9,0,10.8,4.2,11.9,9.7c3-3.8,4.9-8.6,4.9-13.8C58.7,10.9,48.8,1,36.6,1
		s-22.1,9.9-22.1,22.1c0,9.8,6.4,18.2,15.3,21v-4.7C29.8,32.7,35.2,27.3,41.9,27.3z"/>
	<path id="XMLID_586_" class="st3" d="M53.9,37c-1.2-5.5-6.1-9.7-11.9-9.7c-6.7,0-12.2,5.5-12.2,12.2v4.7c2.2,0.7,4.5,1.1,6.8,1.1
		C43.6,45.3,49.8,42,53.9,37z"/>
</g>
</svg>
