<?xml version="1.0" encoding="utf-8"?>
<!-- Generator: Adobe Illustrator 19.2.0, SVG Export Plug-In . SVG Version: 6.00 Build 0)  -->
<svg version="1.1" id="Lager_1" xmlns="http://www.w3.org/2000/svg" xmlns:xlink="http://www.w3.org/1999/xlink" x="0px" y="0px"
	 viewBox="0 0 60 60" width="60" height="60" style="enable-background:new 0 0 60 60;" xml:space="preserve">
<style type="text/css">
	.st0{fill:none;stroke:#F28D62;stroke-width:1.5;stroke-linecap:round;stroke-linejoin:round;stroke-miterlimit:10;}
	.st1{fill:none;stroke:#811D63;stroke-width:1.5;stroke-linecap:round;stroke-linejoin:round;stroke-miterlimit:10;}
	.st2{fill:#811D63;}
	.st3{fill:none;stroke:#F28E62;stroke-width:1.5;stroke-linecap:round;stroke-linejoin:round;stroke-miterlimit:10;}
</style>
<circle id="XMLID_418_" class="st3" cx="42.9" cy="11.8" r="6.7"/>
<path id="XMLID_420_" class="st3" d="M31.2,34.1c0-6.5,5.2-11.7,11.7-11.7s11.7,5.2,11.7,11.7"/>
<circle id="XMLID_422_" class="st3" cx="17.2" cy="19.4" r="6.7"/>
<path id="XMLID_421_" class="st3" d="M28.9,41.7c0-6.5-5.2-11.7-11.7-11.7S5.4,35.2,5.4,41.7v5.4c0,0,3.5,1.5,11.5,1.5
	c5.8,0,12-1.5,12-1.5V42"/>
<line id="XMLID_419_" class="st3" x1="57.9" y1="37.2" x2="28.2" y2="37.2"/>
<line id="XMLID_423_" class="st3" x1="6" y1="37.2" x2="1.3" y2="37.2"/>
<path id="XMLID_424_" class="st3" d="M5.3,52.8c0,0,3.5,1.5,11.5,1.5c5.8,0,12-1.5,12-1.5"/>
</svg>
